By The Numbers
…
#Central snow water equivalent

[1] "Central snow water equivalent 0.0"

State wide average snow pack: water year

[1] "0.0"

#Percent of normal snow pack for this date (%)

[1] "0%"

Reservoir Storage

# A tibble: 74 × 12
   `Water Storage`      `Water Storage`  `Water Storage`  `Water Storage` 
   <chr>                <chr>            <chr>            <chr>           
 1 Reservoir Name       StaID            Capacity(AF)     Elevation(FT)   
 2 TRINITY RIVER        TRINITY RIVER    TRINITY RIVER    TRINITY RIVER   
 3 TRINITY LAKE         CLE              2,447,650        2,339.29        
 4 WHISKEYTOWN          WHI              241,100          1,209.07        
 5 LEWISTON             LEW              14,660           1,900.51        
 6 RUSSIAN RIVER        RUSSIAN RIVER    RUSSIAN RIVER    RUSSIAN RIVER   
 7 SONOMA(WARM SPRINGS) WRS              381,000          452.06          
 8 MENDOCINO (COYOTE)   COY              122,400          748.92          
 9 SACRAMENTO RIVER     SACRAMENTO RIVER SACRAMENTO RIVER SACRAMENTO RIVER
10 SHASTA               SHA              4,552,000        1,033.77        
# ℹ 64 more rows
# ℹ 8 more variables: `Water Storage` <chr>, `Water Storage` <chr>,
#   `Water Storage` <chr>, `Water Storage` <chr>, `Water Storage` <chr>,
#   `Water Storage` <chr>, `Water Storage` <chr>, `Water Storage` <chr>
…
Flow Sacramento

#collapsed code chunk makes a bad map of sacramento sensors

Assuming "longitude" and "latitude" are longitude and latitude, respectively

#Do not need to run

#Create data set of exports from Sacramento and San Joaquin River at Vernalis #take Monthly average of those data sets

# A tibble: 505 × 5
   agency_cd location_id datetime            parameter_cd parameter_value
   <chr>     <chr>       <dttm>              <chr>                  <dbl>
 1 CDEC      VNS         2024-07-01 00:00:00 20                      1838
 2 CDEC      VNS         2024-07-01 01:00:00 20                      1831
 3 CDEC      VNS         2024-07-01 02:00:00 20                      1831
 4 CDEC      VNS         2024-07-01 03:00:00 20                      1824
 5 CDEC      VNS         2024-07-01 04:00:00 20                      1824
 6 CDEC      VNS         2024-07-01 05:00:00 20                      1817
 7 CDEC      VNS         2024-07-01 06:00:00 20                      1817
 8 CDEC      VNS         2024-07-01 07:00:00 20                      1810
 9 CDEC      VNS         2024-07-01 08:00:00 20                      1796
10 CDEC      VNS         2024-07-01 09:00:00 20                      1775
# ℹ 495 more rows
…
