By The Numbers
…
#Central snow water equivalent

[1] "Central snow water equivalent 0.0"

State wide average snow pack: water year

[1] "0.0"

#Percent of normal snow pack for this date (%)

[1] "0%"

Reservoir Storage

# A tibble: 74 × 12
   `Water Storage`      `Water Storage`  `Water Storage`  `Water Storage` 
   <chr>                <chr>            <chr>            <chr>           
 1 Reservoir Name       StaID            Capacity(AF)     Elevation(FT)   
 2 TRINITY RIVER        TRINITY RIVER    TRINITY RIVER    TRINITY RIVER   
 3 TRINITY LAKE         CLE              2,447,650        2,323.47        
 4 WHISKEYTOWN          WHI              241,100          1,208.98        
 5 LEWISTON             LEW              14,660           1,901.38        
 6 RUSSIAN RIVER        RUSSIAN RIVER    RUSSIAN RIVER    RUSSIAN RIVER   
 7 SONOMA(WARM SPRINGS) WRS              381,000          446.62          
 8 MENDOCINO (COYOTE)   COY              122,400          736.59          
 9 SACRAMENTO RIVER     SACRAMENTO RIVER SACRAMENTO RIVER SACRAMENTO RIVER
10 SHASTA               SHA              4,552,000        1,000.87        
# ℹ 64 more rows
# ℹ 8 more variables: `Water Storage` <chr>, `Water Storage` <chr>,
#   `Water Storage` <chr>, `Water Storage` <chr>, `Water Storage` <chr>,
#   `Water Storage` <chr>, `Water Storage` <chr>, `Water Storage` <chr>
…
Flow Sacramento

#collapsed code chunk makes a bad map of sacramento sensors

Assuming "longitude" and "latitude" are longitude and latitude, respectively

#Do not need to run

#Create data set of exports from Sacramento and San Joaquin River at Vernalis #take Monthly average of those data sets

# A tibble: 457 × 5
   agency_cd location_id datetime            parameter_cd parameter_value
   <chr>     <chr>       <dttm>              <chr>                  <dbl>
 1 CDEC      VNS         2024-09-01 00:00:00 20                       922
 2 CDEC      VNS         2024-09-01 01:00:00 20                       938
 3 CDEC      VNS         2024-09-01 02:00:00 20                       954
 4 CDEC      VNS         2024-09-01 03:00:00 20                       970
 5 CDEC      VNS         2024-09-01 04:00:00 20                       986
 6 CDEC      VNS         2024-09-01 05:00:00 20                       997
 7 CDEC      VNS         2024-09-01 06:00:00 20                      1013
 8 CDEC      VNS         2024-09-01 07:00:00 20                      1018
 9 CDEC      VNS         2024-09-01 08:00:00 20                      1029
10 CDEC      VNS         2024-09-01 09:00:00 20                      1040
# ℹ 447 more rows
…
