By The Numbers
…
#Central snow water equivalent

[1] "Central snow water equivalent 0.1"

State wide average snow pack: water year

[1] "0.2"

#Percent of normal snow pack for this date (%)

[1] "9%"

Reservoir Storage

# A tibble: 74 × 12
   `Water Storage`      `Water Storage`  `Water Storage`  `Water Storage` 
   <chr>                <chr>            <chr>            <chr>           
 1 Reservoir Name       StaID            Capacity(AF)     Elevation(FT)   
 2 TRINITY RIVER        TRINITY RIVER    TRINITY RIVER    TRINITY RIVER   
 3 TRINITY LAKE         CLE              2,447,650        2,345.25        
 4 WHISKEYTOWN          WHI              241,100          1,209.21        
 5 LEWISTON             LEW              14,660           1,900.78        
 6 RUSSIAN RIVER        RUSSIAN RIVER    RUSSIAN RIVER    RUSSIAN RIVER   
 7 SONOMA(WARM SPRINGS) WRS              381,000          454.58          
 8 MENDOCINO (COYOTE)   COY              122,400          752.78          
 9 SACRAMENTO RIVER     SACRAMENTO RIVER SACRAMENTO RIVER SACRAMENTO RIVER
10 SHASTA               SHA              4,552,000        1,050.88        
# ℹ 64 more rows
# ℹ 8 more variables: `Water Storage` <chr>, `Water Storage` <chr>,
#   `Water Storage` <chr>, `Water Storage` <chr>, `Water Storage` <chr>,
#   `Water Storage` <chr>, `Water Storage` <chr>, `Water Storage` <chr>
…
Flow Sacramento

#collapsed code chunk makes a bad map of sacramento sensors

Assuming "longitude" and "latitude" are longitude and latitude, respectively

#Do not need to run

#Create data set of exports from Sacramento and San Joaquin River at Vernalis #take Monthly average of those data sets

# A tibble: 601 × 5
   agency_cd location_id datetime            parameter_cd parameter_value
   <chr>     <chr>       <dttm>              <chr>                  <dbl>
 1 CDEC      VNS         2024-06-01 00:00:00 20                      4605
 2 CDEC      VNS         2024-06-01 01:00:00 20                      4605
 3 CDEC      VNS         2024-06-01 02:00:00 20                      4605
 4 CDEC      VNS         2024-06-01 03:00:00 20                      4594
 5 CDEC      VNS         2024-06-01 04:00:00 20                      4605
 6 CDEC      VNS         2024-06-01 05:00:00 20                      4615
 7 CDEC      VNS         2024-06-01 06:00:00 20                      4615
 8 CDEC      VNS         2024-06-01 07:00:00 20                      4636
 9 CDEC      VNS         2024-06-01 08:00:00 20                      4646
10 CDEC      VNS         2024-06-01 09:00:00 20                      4646
# ℹ 591 more rows
…
